{
    "countTotal": true,
    "orderBy": "date",
    "orderDir": "desc",
    "orderType": null,
    "pageNo": 1,
    "pageSize": 10,
    "result": [
        {
            "id": 874,
            "content": "test",
            "date": "2012-11-05 15:01:10",
            "parent": null,
            "root": null,
            "user": {
                "email": "zhangwei11@baidu.com",
                "id": "zhangwei11",
                "loginName": "zhangwei11",
                "realName": "李绍恒",
                "male": true
            },
            "like" : 2,
            "replyCount": 0
        },
        {
            "id": 873,
            "content": "adsffsadasf",
            "date": "2012-11-05 15:00:53",
            "parent": null,
            "root": null,
            "user": {
                "email": "zhangwei11@baidu.com",
                "id": "zhangwei11",
                "loginName": "zhangwei11",
                "realName": "张伟",
                "male": true
            },
            "like" : 5,
            "replyCount": 0
        },
        {
            "id": 706,
            "content": "老师讲的都是人生经验，没有历练是讲不出这些的，赞！",
            "date": "2012-08-10 16:52:12",
            "parent": null,
            "root": null,
            "user": {
                "email": "wangzhihua@baidu.com",
                "id": "wangzhihua",
                "loginName": "wangzhihua",
                "realName": "王智华",
                "male": false
            },
            "like" : 3,
            "replyCount": 2
        },
        {
            "id": 298,
            "content": "ppt在哪下呢？",
            "date": "2012-06-27 09:26:41",
            "parent": null,
            "root": null,
            "user": {
                "email": "yangfan09@baidu.com",
                "id": "yangfan09",
                "loginName": "yangfan09",
                "realName": "杨帆",
                "male": true
            },
            "like" : 1,
            "replyCount": 0
        },
        {
            "id": 278,
            "content": "挺好，理想驱动一切",
            "date": "2012-05-29 14:22:57",
            "parent": null,
            "root": null,
            "user": {
                "email": "yangjin@baidu.com",
                "id": "yangjin",
                "loginName": "yangjin",
                "realName": "杨进",
                "male": true
            },
            "like" : 0,
            "replyCount": 0
        },
        {
            "id": 246,
            "content": "股票最后赚钱，只是个结果，你在做的时候，绝对不是在盯着钱去做，而是非常热爱股票本身，对其波动的背后根本原因的穷根究底的挖掘，一旦你某天挖掘透了，赚钱是自然的事情，是结果，而绝不是为了最后赚钱的结果去做。",
            "date": "2012-05-07 22:43:15",
            "parent": null,
            "root": null,
            "user": {
                "email": "qiushengke@baidu.com",
                "id": "qiushengke",
                "loginName": "qiushengke",
                "realName": "邱胜科",
                "male": true
            },
            "like" : 4,
            "replyCount": 0
        },
        {
            "id": 245,
            "content": "对于股票，我补充一点：股票的投资和主持人说的工作的基本道理一样，“不为钱而做的工作才能做好”，同样“不为钱而去做股票才能做好”!",
            "date": "2012-05-07 22:40:00",
            "parent": null,
            "root": null,
            "user": {
                "email": "qiushengke@baidu.com",
                "id": "qiushengke",
                "loginName": "qiushengke",
                "realName": "邱胜科",
                "male": true
            },
            "like" : 2,
            "replyCount": 0
        }
    ],
    "totalItems": 15,
    "nextPage": 2,
    "pageItems": 10,
    "prePage": 1,
    "totalPages": 2,
    "firstPage": true,
    "lastPage": false,
    "offset": 0,
    "sort": [
        {
            "dir": "desc",
            "property": "date"
        }
    ],
    "sortFields": null,
    "orderBySetted": true
}