{
    "message": "操作成功！",
    "data": {
        "pageNo": 1,
        "pageSize": 10,
        "orderBy": null,
        "order": null,
        "autoCount": true,
        "totalCount": 20,
        "first": 0,
        "orderBySetted": false,
        "totalPages": 20,
        "hasNext": true,
        "nextPage": 2,
        "hasPre": false,
        "prePage": 1,
        "orderByString": "",
        "result": [
            {
                "author": "陈琦",
                "name": "testchenqi",
                "curId": 2221455,
                "beginTime": "2012-12-01 14:40",
            "endTime": "2012-12-12 16:40",
                "courseNumber": "C_1339150372298",
                "selectiveType": 0,
                "needApproval": 0,
                "approvalState": -2,
                "type": 1,
                "period": 1,
                "credit": 1,
                "source": 1,
                "publicType": 0,
                "side": 0,
                
                "limitCount": 260,
                "backupLimit": 0,
                "backupCount": 0,
                "leastCount": 0,
                "assignAllCount": 2,
                "attendedCourseUserNum": 0,
                "applyCount": 0,
                "chooseCount": 1,
                "inCount": 0,
                "assignCount": 0,
                "selectCount": 1,
                "satisfaction": 0,
                "updateTime": "2013-03-07 04:42:19",
                "updateScoreTime": "2012-05-08 18:14:32",
                "level": 7,
                "lastEditTime": "2012-06-08 18:14:32"
            },
            {
                "curId": 4970538,
                "name": "10月10日测试课程1",
                "courseNumber": "C_1349854461272",
                "beginTime": "2012-12-01 14:40",
            "endTime": "2012-12-12 16:40",
                "selectiveType": 0,
                "needApproval": 1,
                "approvalState": 1,
                "type": 1,
                "period": 1,
                "credit": 1,
                "source": 1,
                "publicType": 0,
                "side": 0,
                "author": "杨志",
                "limitCount": 0,
                "backupLimit": 0,
                "backupCount": 0,
                "leastCount": 0,
                "assignAllCount": 7,
                "attendedCourseUserNum": 0,
                "applyCount": 1,
                "chooseCount": 0,
                "inCount": 0,
                "assignCount": 0,
                "selectCount": 0,
                "satisfaction": 0,
                "updateTime": "2013-03-07 04:45:38",
                "updateScoreTime": "2012-09-10 15:36:39",
                "level": 1,
                "lastEditTime": "2012-10-10 15:36:39"
            },
            {
                "curId": 4901923,
                "name": "姜征浩的测试课程",
                "courseNumber": "C_1359341464985",
                "beginTime": "2012-12-01 14:40",
            "endTime": "2012-12-12 16:40",
                "selectiveType": 0,
                "needApproval": 0,
                "approvalState": 2,
                "type": 5,
                "period": 2,
                "credit": 1,
                "source": 8,
                "publicType": 0,
                "side": 0,
                "author": "姜征浩",
                "limitCount": 0,
                "backupLimit": 0,
                "backupCount": 0,
                "leastCount": 0,
                "assignAllCount": 3,
                "attendedCourseUserNum": 0,
                "applyCount": 2,
                "chooseCount": 2,
                "inCount": 2,
                "assignCount": 0,
                "selectCount": 2,
                "satisfaction": 0,
                "updateTime": "2013-03-07 04:44:33",
                "updateScoreTime": "2012-12-28 10:53:19",
                "level": 7,
                "lastEditTime": "2013-01-28 10:53:19"
            },
            {
                "curId": 4986561,
                "name": "test111",
                "courseNumber": "C_1361263368258",
                "beginTime": "2012-12-01 14:40",
            "endTime": "2012-12-12 16:40",
                "selectiveType": 0,
                "needApproval": 0,
                "approvalState": 0,
                "type": 2,
                "period": 2,
                "credit": 2,
                "source": 1,
                "publicType": 0,
                "side": 0,
                "author": "姜征浩",
                "limitCount": 0,
                "backupLimit": 0,
                "backupCount": 0,
                "leastCount": 0,
                "assignAllCount": 4,
                "attendedCourseUserNum": 0,
                "applyCount": 1,
                "chooseCount": 1,
                "inCount": 0,
                "assignCount": 0,
                "selectCount": 1,
                "satisfaction": 0,
                "updateTime": "2013-03-07 04:44:52",
                "updateScoreTime": "2013-01-19 16:43:23",
                "level": 4,
                "lastEditTime": "2013-02-19 23:40:27"
            }
        ]
    },
    "code": 200
}