{
    "countTotal": true,
    "orderBy": "collectCount",
    "orderDir": "desc",
    "orderType": null,
    "pageNo": 1,
    "pageSize": 6,
    "result": [
        {
            "categoryList": [
                {
                    "id": 5,
                    "categoryList": [
                        {
                            "id": 22,
                            "categoryList": [],
                            "name": "孩子们的事"
                        },
                        {
                            "id": 23,
                            "categoryList": [],
                            "name": "健康与运动"
                        },
                        {
                            "id": 24,
                            "categoryList": [],
                            "name": "我们爱百度"
                        }
                    ],
                    "name": "生活类"
                }
            ],
            "collectCount": 109,
            "coverPath": "/oc/downloads/c6fa6acc-1622-47b3-8fcf-6ca4a7a89e7a/attachment-5/screen_out.jpg",
            "department": {
                "id": 101,
                "abbreviation": "HR",
                "name": "人力资源部"
            },
            "description": "你现在是穷人吗？ 30年后按照现状你会变成什么样子？还能不能养活自己？子女教育基金与退休基金，你会优先配置哪个？有钱后怎样投资理财？………",
            "id": "c6fa6acc-1622-47b3-8fcf-6ca4a7a89e7a",
            "length": "00:55:52",
            "name": "【活自己？",
            "recommendCount": 30,
            "recordingDate": "2012-04-26 12:23:10",
            "releaseDate": "2012-05-04 10:26:17",
            "share": true,
            "speaker": {
                "id": 191,
                "baiduer": true,
                "email": "xuhuansheng@baidu.com",
                "introduction": "徐欢生-移动·云计算事业部",
                "name": "徐欢生"
            },
            "tagList": [
                {
                    "id": 191,
                    "name": "投资"
                },
                {
                    "id": 304,
                    "name": "读书会"
                },
                {
                    "id": 305,
                    "name": "阅读"
                }
            ],
            "viewCount": 3892,
            "screenType": 1,
            "loopCoverPath": "/upload/images/loopcover/c6fa6acc-1622-47b3-8fcf-6ca4a7a89e7a.jpg"
        },
        {
            "categoryList": [
                {
                    "id": 1,
                    "categoryList": [
                        {
                            "id": 6,
                            "categoryList": [],
                            "name": "程序编码"
                        },
                        {
                            "id": 7,
                            "categoryList": [],
                            "name": "Web架构"
                        },
                        {
                            "id": 8,
                            "categoryList": [],
                            "name": "前端开发"
                        },
                        {
                            "id": 9,
                            "categoryList": [],
                            "name": "软件测试"
                        },
                        {
                            "id": 10,
                            "categoryList": [],
                            "name": "安全与加密"
                        },
                        {
                            "id": 11,
                            "categoryList": [],
                            "name": "运维支持"
                        }
                    ],
                    "name": "程序编码"
                }
            ],
            "collectCount": 103,
            "coverPath": "/oc/downloads/bd5be3f8-6dca-43ad-92e9-fbef553940d7/attachment-5/screen_out.jpg",
            "department": {
                "id": 1599,
                "abbreviation": "INF",
                "name": "基础架构部"
            },
            "description": "范丽将会给同学们用中文讲一下Jeff Dean在Stanford 的一个演讲的PPT, 这个演讲对于了解Google架构的发展和学习写好架构程序的一些基本思路是非常有帮助的。同时也会增加一些她所知道的东西，与大家一起交流百度现在的架构状况和需要改进的地方。",
            "id": "bd5be3f8-6dca-43ad-92e9-fbef553940d7",
            "length": "00:33:23",
            "name": "《Google 的架构发展过程 + 写好架构程序的基本原则》（上）",
            "recommendCount": 22,
            "recordingDate": "2012-03-02 13:59:44",
            "releaseDate": "2012-03-02 17:59:18",
            "share": true,
            "speaker": {
                "id": 152,
                "baiduer": true,
                "email": "liyan@baidu.com",
                "introduction": "范丽-基础架构部",
                "name": "范丽"
            },
            "tagList": [
                {
                    "id": 18,
                    "name": "Web架构"
                },
                {
                    "id": 38,
                    "name": "架构"
                },
                {
                    "id": 74,
                    "name": "Google"
                }
            ],
            "viewCount": 2888,
            "screenType": 1,
            "loopCoverPath": "/oc/downloads/bd5be3f8-6dca-43ad-92e9-fbef553940d7/attachment-5/screen_out.jpg"
        },
        {
            "categoryList": [
                {
                    "id": 1,
                    "categoryList": [
                        {
                            "id": 6,
                            "categoryList": [],
                            "name": "程序编码"
                        },
                        {
                            "id": 7,
                            "categoryList": [],
                            "name": "Web架构"
                        },
                        {
                            "id": 8,
                            "categoryList": [],
                            "name": "前端开发"
                        },
                        {
                            "id": 9,
                            "categoryList": [],
                            "name": "软件测试"
                        },
                        {
                            "id": 10,
                            "categoryList": [],
                            "name": "安全与加密"
                        },
                        {
                            "id": 11,
                            "categoryList": [],
                            "name": "运维支持"
                        }
                    ],
                    "name": "程序编码"
                }
            ],
            "collectCount": 82,
            "coverPath": "/oc/downloads/abb62671-665c-468e-a47f-f524a94122c2/attachment-5/screen_out.jpg",
            "department": {
                "id": 1599,
                "abbreviation": "INF",
                "name": "基础架构部"
            },
            "description": "架构设计的一些思考",
            "id": "abb62671-665c-468e-a47f-f524a94122c2",
            "length": "01:51:11",
            "name": "【INF技术交流】架构设计的一些思考",
            "recommendCount": 16,
            "recordingDate": "2012-02-23 15:57:42",
            "releaseDate": "2012-02-24 12:51:23",
            "share": true,
            "speaker": {
                "id": 146,
                "baiduer": true,
                "email": "linshiding@baidu.com",
                "introduction": "林仕鼎于2007年10月加入百度，任网页搜索部高级研究员、主任架构师，主持开发了百度新一代网页存储与处理平台——百灵，带领百度搜索引擎实现了网页与索引的跨量级增长。",
                "name": "林仕鼎"
            },
            "tagList": [
                {
                    "id": 7,
                    "name": "技术交流"
                },
                {
                    "id": 18,
                    "name": "Web架构"
                },
                {
                    "id": 225,
                    "name": "架构设计"
                }
            ],
            "viewCount": 1148,
            "screenType": 1,
            "loopCoverPath": "/oc/downloads/abb62671-665c-468e-a47f-f524a94122c2/attachment-5/screen_out.jpg"
        },
        {
            "categoryList": [
                {
                    "id": 4,
                    "categoryList": [
                        {
                            "id": 19,
                            "categoryList": [],
                            "name": "企业文化"
                        },
                        {
                            "id": 20,
                            "categoryList": [],
                            "name": "项目经理"
                        },
                        {
                            "id": 21,
                            "categoryList": [],
                            "name": "团队合作"
                        }
                    ],
                    "name": "管理类"
                }
            ],
            "collectCount": 78,
            "coverPath": "/oc/downloads/67f1039d-b254-4a15-9bf2-0ae7c29dfaa6/attachment-5/screen_out.jpg",
            "department": {
                "id": 101,
                "abbreviation": "HR",
                "name": "人力资源部"
            },
            "description": "课程目标：您将了解百度11年的发展历程；您将熟悉百度目前最新的组织架构和员工发展曲线；                课程目标对象：百度新员工；                课程内容和结构：百度公司的使命；公司的业务主体构成；公司的盈利模式；现有的商业产品；现有的用户产品；业务流与部门设置之间的关系；附加信息：如有访问权限或播放问题，请发邮件至peixun@baidu.com",
            "id": "67f1039d-b254-4a15-9bf2-0ae7c29dfaa6",
            "length": "00:41:00",
            "name": "【新员工】百度组织架构透视",
            "recommendCount": 27,
            "recordingDate": "2011-06-15 00:00:00",
            "releaseDate": "2011-06-17 00:00:00",
            "share": true,
            "speaker": {
                "id": 4,
                "baiduer": false,
                "email": "zwang@baidu.com",
                "introduction": "2010年1月8日，百度晋升商业产品高级总监王湛先生晋升为公司副总裁。王湛2000年加入百度，百度称王湛积极推进公司商业模式的创新，成功实施搜索推广专业版（凤巢系统）的上线；多年来，王湛为不断完善百度的商业产品体系及搜索营销服务体系做出杰出贡献。",
                "name": "王湛"
            },
            "tagList": [
                {
                    "id": 9,
                    "name": "企业文化"
                },
                {
                    "id": 163,
                    "name": "新人"
                },
                {
                    "id": 241,
                    "name": "组织架构"
                }
            ],
            "viewCount": 2934,
            "screenType": 1,
            "loopCoverPath": "/oc/downloads/67f1039d-b254-4a15-9bf2-0ae7c29dfaa6/attachment-5/screen_out.jpg"
        },
        {
            "categoryList": [
                {
                    "id": 1,
                    "categoryList": [
                        {
                            "id": 6,
                            "categoryList": [],
                            "name": "程序编码"
                        },
                        {
                            "id": 7,
                            "categoryList": [],
                            "name": "Web架构"
                        },
                        {
                            "id": 8,
                            "categoryList": [],
                            "name": "前端开发"
                        },
                        {
                            "id": 9,
                            "categoryList": [],
                            "name": "软件测试"
                        },
                        {
                            "id": 10,
                            "categoryList": [],
                            "name": "安全与加密"
                        },
                        {
                            "id": 11,
                            "categoryList": [],
                            "name": "运维支持"
                        }
                    ],
                    "name": "程序编码"
                }
            ],
            "collectCount": 72,
            "coverPath": "/oc/downloads/3d1c976b-531e-4001-b5e1-9dad3d66fc71/attachment-5/screen_out.jpg",
            "department": {
                "id": 1599,
                "abbreviation": "INF",
                "name": "基础架构部"
            },
            "description": "【课程目标】\r\n在2个小时内，学员们学会如编写一个稳定高效的多线程互联网运用。深刻理解多核编程的本质，以及在这个环境下，如何提高cpu，磁盘，网络的利用率。并通过学到的技巧运用到工程实践中\r\n【主要内容】1.解决WHY的问题。2.解决HOW的问题，如何在多核环境下，解决内存碎片，线程互斥，磁盘吞吐，网络吞吐不高的问题。3.解决WHAT的问题，介绍百度常用的编程模型下一些常见的问题，并告知如何克服。4.现场case测试。设备问题，第30分至38分声音没有录到，其他声音正常，敬请谅解！",
            "id": "3d1c976b-531e-4001-b5e1-9dad3d66fc71",
            "length": "01:37:18",
            "name": "编程技巧",
            "recommendCount": 8,
            "recordingDate": "2011-11-23 10:20:11",
            "releaseDate": "2011-11-25 17:51:59",
            "share": true,
            "speaker": {
                "id": 81,
                "baiduer": true,
                "email": "xiaowei@baidu.com",
                "introduction": "肖伟：毕业于浙江大学计算机系。百度基础架构部架构师，长期从事百度分布式计算，云计算，基础库的研发。典型代表有百度基础库编程体系，百度内部云计算平台。目前，主要从事公司云战略相关的研发工作。\r曾经获年度最佳百度人，多次获得百度季度之星和创新奖。",
                "name": "肖伟"
            },
            "tagList": [
                {
                    "id": 1,
                    "name": "程序编码"
                },
                {
                    "id": 13,
                    "name": "培训"
                },
                {
                    "id": 130,
                    "name": "分享"
                }
            ],
            "viewCount": 2080,
            "screenType": 1,
            "loopCoverPath": "/oc/downloads/3d1c976b-531e-4001-b5e1-9dad3d66fc71/attachment-5/screen_out.jpg"
        },
        {
            "categoryList": [
                {
                    "id": 3,
                    "categoryList": [
                        {
                            "id": 15,
                            "categoryList": [],
                            "name": "用户研究"
                        },
                        {
                            "id": 16,
                            "categoryList": [],
                            "name": "交互设计"
                        },
                        {
                            "id": 17,
                            "categoryList": [],
                            "name": "视觉设计"
                        },
                        {
                            "id": 18,
                            "categoryList": [],
                            "name": "内容设计"
                        }
                    ],
                    "name": "用户设计类"
                }
            ],
            "collectCount": 66,
            "coverPath": "/oc/downloads/b50fd723-e7a6-4ecc-a2af-a0565a7ab19d/attachment-5/screen_out.jpg",
            "department": {
                "id": 92,
                "abbreviation": "ST-PS",
                "name": "网页搜索部"
            },
            "description": "【课程目标】\r\n1. 知晓用户日志如何产生，在大搜索上有那些应用；\r\n2. 了解用户行为分析的基本方法，提高充分利用用户数据促进本职工作的意识。",
            "id": "b50fd723-e7a6-4ecc-a2af-a0565a7ab19d",
            "length": "01:45:08",
            "name": "用户行为分析常用方法和应用",
            "recommendCount": 12,
            "recordingDate": "2011-12-06 14:18:49",
            "releaseDate": "2011-12-12 11:37:53",
            "share": true,
            "speaker": {
                "id": 97,
                "baiduer": true,
                "email": "pengtao@baidu.com",
                "introduction": "彭滔:2009年加入百度，一直从事大搜索及相关产品线用户行为分析。目前负责大搜索基于用户数据的评估、监控、用户建模等工作。",
                "name": "彭滔"
            },
            "tagList": [
                {
                    "id": 22,
                    "name": "用户研究"
                },
                {
                    "id": 143,
                    "name": "行为分析"
                },
                {
                    "id": 293,
                    "name": "内容设计"
                }
            ],
            "viewCount": 963,
            "screenType": 1,
            "loopCoverPath": "/oc/downloads/b50fd723-e7a6-4ecc-a2af-a0565a7ab19d/attachment-5/screen_out.jpg"
        }
    ],
    "totalItems": 893,
    "nextPage": 2,
    "pageItems": 6,
    "prePage": 1,
    "totalPages": 149,
    "firstPage": true,
    "lastPage": false,
    "offset": 0,
    "sort": [
        {
            "dir": "desc",
            "property": "collectCount"
        }
    ],
    "sortFields": null,
    "orderBySetted": true
}